{
    "startFrame": 0,
    "numberOfFrames": 97,
    "intraPeriod": 32,
    "SourceTexturePathFmt": "%s_texture_4096x4096_yuv420p10le.yuv",
    "SourceDepthPathFmt": "%s_depth_4096x4096_yuv420p16le.yuv",
    "SourceDepthBitDepth": 16,
    "SourceCameraParameters": "TechnicolorHijack.json",
    "SourceCameraNames": [
        "v1",
        "v4",
        "v5",
        "v8",
        "v9"
    ],
    "AtlasTexturePathFmt": "ATL_SC_R0_Tt_c%02d_4096x4096_yuv420p10le.yuv",
    "AtlasDepthPathFmt": "ATL_SC_R0_Td_c%02d_4096x4096_yuv420p10le.yuv",
    "AtlasMetadataPath": "ATL_SC_R0_Tm_c00.bit",
    "OutputTexturePath": "TM1_SC_R0_Tt_%s_4096x4096_yuv420p10le.yuv",
    "OutputCameraName": "v1",
    "OmafV1CompatibleFlag": false,
    "EncoderMethod": "Encoder",
    "Encoder": {
        "ViewOptimizerMethod": "NoViewOptimizer",
        "NoViewOptimizer": {},
        "AtlasConstructorMethod": "AtlasConstructor",
        "AtlasConstructor": {
            "PrunerMethod": "Pruner",
            "Pruner": {
                "RedundancyFactor": 0.02,
                "ErosionIter": 1,
                "DilationIter": 5
            },
            "AggregatorMethod": "Aggregator",
            "Aggregator": {},
            "PackerMethod": "Packer",
            "Packer": {
                "Alignment": 8,
                "MinPatchSize": 16,
                "Overlap": 1,
                "PiP": 1
            },
            "AtlasResolution": [
                4096,
                4096
            ],
            "MaxLumaSamplesPerFrame": 167772160
        }
    },
    "DecoderMethod": "Decoder",
    "Decoder": {
        "AtlasDeconstructorMethod": "AtlasDeconstructor",
        "AtlasDeconstructor": {},
        "RendererMethod": "MultipassRenderer",
        "MultipassRenderer": {
            "NumberOfPasses": 3,
            "NumberOfViewsPerPass": [
                2,
                4,
                5
            ],
            "SynthesizerMethod": "Synthesizer",
            "Synthesizer": {
                "rayAngleParameter": 20,
                "depthParameter": 20,
                "stretchingParameter": 0.6,
                "maxStretching": 5
            },
            "InpainterMethod": "Inpainter",
            "Inpainter": {}
        }
    }
}
